code;partner_name;address;type;area;city;zip_code;phone;fax;afm;doy_code;profession;branch_partner
42BB9E2B;my sports ae;Γρ. Λαμπρακη 58;2;Γλυφαδα;Αθήνα;11144;6932245174;;800922520;12345;;
CDF12345;my sports ae Κατεχάκης;Κατεχακη 23;3;Κατεχάκη;Αθήνα;11199;6932245177;;800922520;54321;;42BB9E2B
CDF12344;my sports ae Αμαρουσίου;Κηφισίας 23;3;Μαρούσι;Αθήνα;11177;6932245176;;800922520;54321;;42BB9E2B